{
  "development": {
    "username": "root",
    "password": "",
    "database": "cprok_portfolio",
    "host": "localhost",
    "dialect": "mysql"
  },
  "production": {
    "username": "root",
    "password": null,
    "database": "cprok_portfolio",
    "host": "localhost",
    "dialect": "mysql"
  }
}
